{
	"info": {
		"_postman_id": "6f18cad3-1ec5-4fdd-9796-6c482d0063c8",
		"name": "Parrot",
		"schema": "https://schema.getpostman.com/json/collection/v2.1.0/collection.json"
	},
	"item": [
		{
			"name": "Register",
			"protocolProfileBehavior": {
				"disabledSystemHeaders": {
					"accept": true
				}
			},
			"request": {
				"method": "POST",
				"header": [
					{
						"key": "Accept",
						"value": "application/json",
						"type": "text"
					},
					{
						"key": "Referer",
						"value": "localhost",
						"type": "text",
						"disabled": true
					}
				],
				"body": {
					"mode": "formdata",
					"formdata": [
						{
							"key": "name",
							"value": "James",
							"type": "text"
						},
						{
							"key": "email",
							"value": "muchologo@gmail.com",
							"type": "text"
						},
						{
							"key": "password",
							"value": "123456",
							"type": "text"
						},
						{
							"key": "password_confirmation",
							"value": "123456",
							"type": "text"
						}
					]
				},
				"url": {
					"raw": "{{url}}/api/register",
					"host": [
						"{{url}}"
					],
					"path": [
						"api",
						"register"
					]
				}
			},
			"response": []
		},
		{
			"name": "Creare Order",
			"protocolProfileBehavior": {
				"disabledSystemHeaders": {
					"accept": true
				}
			},
			"request": {
				"auth": {
					"type": "bearer",
					"bearer": [
						{
							"key": "token",
							"value": "{{token}}",
							"type": "string"
						}
					]
				},
				"method": "POST",
				"header": [
					{
						"key": "Accept",
						"value": "application/json",
						"type": "text"
					},
					{
						"key": "X-XSRF-TOKEN",
						"value": "{{xsrf-cookie}}",
						"type": "text",
						"disabled": true
					},
					{
						"key": "Referer",
						"value": "localhost:11002",
						"type": "text",
						"disabled": true
					}
				],
				"body": {
					"mode": "formdata",
					"formdata": [
						{
							"key": "client",
							"value": "Steven Universe",
							"type": "text"
						},
						{
							"key": "products[0][name]",
							"value": "Banana Split",
							"type": "text",
							"disabled": true
						},
						{
							"key": "products[0][description]",
							"value": "Helado de sabores múltiples con relleno de bananas y cubierta sabor chocolate",
							"type": "text"
						},
						{
							"key": "products[0][unitprice]",
							"value": "45",
							"type": "text"
						},
						{
							"key": "products[0][quantity]",
							"value": "1",
							"type": "text"
						},
						{
							"key": "products[1][name]",
							"value": "Enchiladas mineras",
							"type": "text",
							"disabled": true
						},
						{
							"key": "products[1][description]",
							"value": "Tortillas enrolladas rellenas de queso gratinado cubiertas con mezcla de chiles rojos y crema de rancho, acompañas con ensalada.",
							"type": "text"
						},
						{
							"key": "products[1][unitprice]",
							"value": "35",
							"type": "text"
						},
						{
							"key": "products[1][quantity]",
							"value": "1",
							"type": "text"
						}
					]
				},
				"url": {
					"raw": "{{url}}/api/orders",
					"host": [
						"{{url}}"
					],
					"path": [
						"api",
						"orders"
					]
				}
			},
			"response": []
		},
		{
			"name": "Report-Selled-Products by Datetime Hour",
			"protocolProfileBehavior": {
				"disabledSystemHeaders": {
					"accept": true
				},
				"disableBodyPruning": true
			},
			"request": {
				"auth": {
					"type": "bearer",
					"bearer": [
						{
							"key": "token",
							"value": "{{token}}",
							"type": "string"
						}
					]
				},
				"method": "GET",
				"header": [
					{
						"key": "Accept",
						"value": "application/json",
						"type": "text"
					}
				],
				"body": {
					"mode": "formdata",
					"formdata": []
				},
				"url": {
					"raw": "{{url}}/api/reporte-productos-vendidos?date=2021-10-14 19:00:00",
					"host": [
						"{{url}}"
					],
					"path": [
						"api",
						"reporte-productos-vendidos"
					],
					"query": [
						{
							"key": "date",
							"value": "2021-10-14 19:00:00"
						},
						{
							"key": "date[1]",
							"value": "2021-10-12 23:59:59",
							"disabled": true
						}
					]
				}
			},
			"response": []
		},
		{
			"name": "Report-Selled-Products by Datetime Hour and Minute",
			"protocolProfileBehavior": {
				"disabledSystemHeaders": {
					"accept": true
				},
				"disableBodyPruning": true
			},
			"request": {
				"auth": {
					"type": "bearer",
					"bearer": [
						{
							"key": "token",
							"value": "{{token}}",
							"type": "string"
						}
					]
				},
				"method": "GET",
				"header": [
					{
						"key": "Accept",
						"value": "application/json",
						"type": "text"
					}
				],
				"body": {
					"mode": "formdata",
					"formdata": []
				},
				"url": {
					"raw": "{{url}}/api/reporte-productos-vendidos?date=2021-10-14 19:21:00",
					"host": [
						"{{url}}"
					],
					"path": [
						"api",
						"reporte-productos-vendidos"
					],
					"query": [
						{
							"key": "date",
							"value": "2021-10-14 19:21:00"
						},
						{
							"key": "date[1]",
							"value": "2021-10-12 23:59:59",
							"disabled": true
						}
					]
				}
			},
			"response": []
		},
		{
			"name": "Report-Selled-Products by Datetime Range",
			"protocolProfileBehavior": {
				"disabledSystemHeaders": {
					"accept": true
				},
				"disableBodyPruning": true
			},
			"request": {
				"auth": {
					"type": "bearer",
					"bearer": [
						{
							"key": "token",
							"value": "{{token}}",
							"type": "string"
						}
					]
				},
				"method": "GET",
				"header": [
					{
						"key": "Accept",
						"value": "application/json",
						"type": "text"
					}
				],
				"body": {
					"mode": "formdata",
					"formdata": []
				},
				"url": {
					"raw": "{{url}}/api/reporte-productos-vendidos?date[0]=2021-10-13 00:00:00&date[1]=2021-10-14 23:59:59",
					"host": [
						"{{url}}"
					],
					"path": [
						"api",
						"reporte-productos-vendidos"
					],
					"query": [
						{
							"key": "date[0]",
							"value": "2021-10-13 00:00:00"
						},
						{
							"key": "date[1]",
							"value": "2021-10-14 23:59:59"
						}
					]
				}
			},
			"response": []
		},
		{
			"name": "User Information",
			"protocolProfileBehavior": {
				"disabledSystemHeaders": {
					"accept": true
				}
			},
			"request": {
				"auth": {
					"type": "bearer",
					"bearer": [
						{
							"key": "token",
							"value": "{{token}}",
							"type": "string"
						}
					]
				},
				"method": "POST",
				"header": [
					{
						"key": "Accept",
						"value": "application/json",
						"type": "text"
					}
				],
				"body": {
					"mode": "formdata",
					"formdata": []
				},
				"url": {
					"raw": "{{url}}/api/me",
					"host": [
						"{{url}}"
					],
					"path": [
						"api",
						"me"
					]
				}
			},
			"response": []
		},
		{
			"name": "SPA Get-CSRF-Token",
			"protocolProfileBehavior": {
				"disabledSystemHeaders": {
					"accept": true
				}
			},
			"request": {
				"auth": {
					"type": "noauth"
				},
				"method": "GET",
				"header": [
					{
						"key": "Accept",
						"value": "application/json",
						"type": "text"
					}
				],
				"url": {
					"raw": "{{url}}/sanctum/csrf-cookie",
					"host": [
						"{{url}}"
					],
					"path": [
						"sanctum",
						"csrf-cookie"
					]
				}
			},
			"response": []
		},
		{
			"name": "Login",
			"event": [
				{
					"listen": "prerequest",
					"script": {
						"exec": [
							"pm.sendRequest({\r",
							"    url:'http://localhost:11002/sanctum/csrf-cookie',\r",
							"    method: 'GET'\r",
							"}, function(error, response, {cookies}){\r",
							"    if (!error) {\r",
							"        pm.environment.set('xsrf-cookie', cookies.get('XSRF-TOKEN'));\r",
							"    }\r",
							"});"
						],
						"type": "text/javascript"
					}
				}
			],
			"protocolProfileBehavior": {
				"disabledSystemHeaders": {
					"accept": true
				}
			},
			"request": {
				"auth": {
					"type": "noauth"
				},
				"method": "POST",
				"header": [
					{
						"key": "Accept",
						"value": "application/json",
						"type": "text"
					},
					{
						"key": "Referer",
						"value": "localhost:11002",
						"type": "text"
					},
					{
						"key": "X-XSRF-TOKEN",
						"value": "{{xsrf-cookie}}",
						"type": "text"
					}
				],
				"body": {
					"mode": "formdata",
					"formdata": [
						{
							"key": "email",
							"value": "muchologo@gmail.com",
							"type": "text"
						},
						{
							"key": "password",
							"value": "password",
							"type": "text"
						}
					]
				},
				"url": {
					"raw": "{{url}}/login",
					"host": [
						"{{url}}"
					],
					"path": [
						"login"
					]
				}
			},
			"response": []
		},
		{
			"name": "Logout",
			"protocolProfileBehavior": {
				"disabledSystemHeaders": {
					"accept": true
				}
			},
			"request": {
				"auth": {
					"type": "noauth"
				},
				"method": "POST",
				"header": [
					{
						"key": "Accept",
						"value": "application/json",
						"type": "text"
					},
					{
						"key": "Referer",
						"value": "localhost:11002",
						"type": "text"
					},
					{
						"key": "X-XSRF-TOKEN",
						"value": "{{xsrf-cookie}}",
						"type": "text"
					}
				],
				"url": {
					"raw": "{{url}}/api/logout",
					"host": [
						"{{url}}"
					],
					"path": [
						"api",
						"logout"
					]
				}
			},
			"response": []
		}
	],
	"auth": {
		"type": "bearer",
		"bearer": [
			{
				"key": "token",
				"value": "{{token}}",
				"type": "string"
			}
		]
	},
	"event": [
		{
			"listen": "prerequest",
			"script": {
				"type": "text/javascript",
				"exec": [
					""
				]
			}
		},
		{
			"listen": "test",
			"script": {
				"type": "text/javascript",
				"exec": [
					""
				]
			}
		}
	]
}